ROM16/simulation/qsim/ROM16.msim.vcd
$comment
	File created using the following command:
		vcd file ROM16.msim.vcd -direction
$end
$date
	Tue Oct 23 14:29:31 2018
$end
$version
	ModelSim Version 10.5b
$end
$timescale
	1ps
$end

$scope module rom16_vhd_vec_tst $end
$var wire 1 ! INSTRUCTION [15] $end
$var wire 1 " INSTRUCTION [14] $end
$var wire 1 # INSTRUCTION [13] $end
$var wire 1 $ INSTRUCTION [12] $end
$var wire 1 % INSTRUCTION [11] $end
$var wire 1 & INSTRUCTION [10] $end
$var wire 1 ' INSTRUCTION [9] $end
$var wire 1 ( INSTRUCTION [8] $end
$var wire 1 ) INSTRUCTION [7] $end
$var wire 1 * INSTRUCTION [6] $end
$var wire 1 + INSTRUCTION [5] $end
$var wire 1 , INSTRUCTION [4] $end
$var wire 1 - INSTRUCTION [3] $end
$var wire 1 . INSTRUCTION [2] $end
$var wire 1 / INSTRUCTION [1] $end
$var wire 1 0 INSTRUCTION [0] $end
$var wire 1 1 PC_address [3] $end
$var wire 1 2 PC_address [2] $end
$var wire 1 3 PC_address [1] $end
$var wire 1 4 PC_address [0] $end

$scope module i1 $end
$var wire 1 5 gnd $end
$var wire 1 6 vcc $end
$var wire 1 7 unknown $end
$var wire 1 8 devoe $end
$var wire 1 9 devclrn $end
$var wire 1 : devpor $end
$var wire 1 ; ww_devoe $end
$var wire 1 < ww_devclrn $end
$var wire 1 = ww_devpor $end
$var wire 1 > ww_PC_address [3] $end
$var wire 1 ? ww_PC_address [2] $end
$var wire 1 @ ww_PC_address [1] $end
$var wire 1 A ww_PC_address [0] $end
$var wire 1 B ww_INSTRUCTION [15] $end
$var wire 1 C ww_INSTRUCTION [14] $end
$var wire 1 D ww_INSTRUCTION [13] $end
$var wire 1 E ww_INSTRUCTION [12] $end
$var wire 1 F ww_INSTRUCTION [11] $end
$var wire 1 G ww_INSTRUCTION [10] $end
$var wire 1 H ww_INSTRUCTION [9] $end
$var wire 1 I ww_INSTRUCTION [8] $end
$var wire 1 J ww_INSTRUCTION [7] $end
$var wire 1 K ww_INSTRUCTION [6] $end
$var wire 1 L ww_INSTRUCTION [5] $end
$var wire 1 M ww_INSTRUCTION [4] $end
$var wire 1 N ww_INSTRUCTION [3] $end
$var wire 1 O ww_INSTRUCTION [2] $end
$var wire 1 P ww_INSTRUCTION [1] $end
$var wire 1 Q ww_INSTRUCTION [0] $end
$var wire 1 R \~QUARTUS_CREATED_GND~I_combout\ $end
$var wire 1 S \PC_address[3]~input_o\ $end
$var wire 1 T \PC_address[0]~input_o\ $end
$var wire 1 U \PC_address[1]~input_o\ $end
$var wire 1 V \PC_address[2]~input_o\ $end
$var wire 1 W \Mux5~0_combout\ $end
$var wire 1 X \Mux5~1_combout\ $end
$var wire 1 Y \Mux5~2_combout\ $end
$var wire 1 Z \Mux5~3_combout\ $end
$var wire 1 [ \Mux5~4_combout\ $end
$var wire 1 \ \Mux5~5_combout\ $end
$var wire 1 ] \Mux5~6_combout\ $end
$var wire 1 ^ \Mux5~7_combout\ $end
$var wire 1 _ \Mux5~8_combout\ $end
$var wire 1 ` \Mux5~9_combout\ $end
$var wire 1 a \Mux2~0_combout\ $end
$var wire 1 b \Mux1~0_combout\ $end
$var wire 1 c \Mux0~0_combout\ $end
$var wire 1 d \ALT_INV_PC_address[2]~input_o\ $end
$var wire 1 e \ALT_INV_PC_address[1]~input_o\ $end
$var wire 1 f \ALT_INV_PC_address[3]~input_o\ $end
$var wire 1 g \ALT_INV_PC_address[0]~input_o\ $end
$upscope $end
$upscope $end
$enddefinitions $end
#0
$dumpvars
05
16
x7
18
19
1:
1;
1<
1=
xR
0S
0T
0U
0V
0W
0X
0Y
0Z
0[
0\
0]
0^
0_
0`
0a
0b
0c
1d
1e
1f
1g
01
02
03
04
0>
0?
0@
0A
0B
0C
0D
0E
0F
0G
0H
0I
0J
0K
0L
0M
0N
0O
0P
1Q
0!
0"
0#
0$
0%
0&
0'
0(
0)
0*
0+
0,
0-
0.
0/
10
$end
#30000
14
1A
1T
0g
1W
1P
1/
#60000
04
13
0A
1@
1U
0T
1g
0e
0W
1X
1O
0P
0/
1.
#90000
14
1A
1T
0g
0X
1Y
1N
0O
0.
1-
#120000
04
03
12
0A
0@
1?
1V
0U
0T
1g
1e
0d
0Y
1Z
1L
0N
0-
1+
#150000
14
1A
1T
0g
0Z
1[
1K
0L
0+
1*
#180000
04
13
0A
1@
1U
0T
1g
0e
0[
1\
1J
0K
0*
1)
#210000
14
1A
1T
0g
0\
1]
1I
0J
0)
1(
#240000
04
03
02
11
0A
0@
0?
1>
1S
0V
0U
0T
1g
1e
1d
0f
0]
1^
1H
0I
0(
1'
#270000
14
1A
1T
0g
0^
1_
1G
0H
0'
1&
#300000
04
13
0A
1@
1U
0T
1g
0e
0_
1`
1F
0G
0&
1%
#330000
14
1A
1T
0g
0`
1a
1E
0F
0%
1$
#360000
04
03
12
0A
0@
1?
1V
0U
0T
1g
1e
0d
0a
1b
1D
0E
0$
1#
#390000
14
1A
1T
0g
0b
1c
1C
0D
0#
1"
#420000
04
13
0A
1@
1U
0T
1g
0e
1b
1D
1#
#450000
14
1A
1T
0g
1a
1E
1$
#480000
04
03
02
01
0A
0@
0?
0>
0S
0V
0U
0T
1g
1e
1d
1f
0a
0b
0c
0C
0D
0E
0$
0#
0"
#510000
14
1A
1T
0g
1W
1P
1/
#540000
04
13
0A
1@
1U
0T
1g
0e
0W
1X
1O
0P
0/
1.
#570000
14
1A
1T
0g
0X
1Y
1N
0O
0.
1-
#600000
04
03
12
0A
0@
1?
1V
0U
0T
1g
1e
0d
0Y
1Z
1L
0N
0-
1+
#630000
14
1A
1T
0g
0Z
1[
1K
0L
0+
1*
#660000
04
13
0A
1@
1U
0T
1g
0e
0[
1\
1J
0K
0*
1)
#690000
14
1A
1T
0g
0\
1]
1I
0J
0)
1(
#720000
04
03
02
11
0A
0@
0?
1>
1S
0V
0U
0T
1g
1e
1d
0f
0]
1^
1H
0I
0(
1'
#750000
14
1A
1T
0g
0^
1_
1G
0H
0'
1&
#780000
04
13
0A
1@
1U
0T
1g
0e
0_
1`
1F
0G
0&
1%
#810000
14
1A
1T
0g
0`
1a
1E
0F
0%
1$
#840000
04
03
12
0A
0@
1?
1V
0U
0T
1g
1e
0d
0a
1b
1D
0E
0$
1#
#870000
14
1A
1T
0g
0b
1c
1C
0D
0#
1"
#900000
04
13
0A
1@
1U
0T
1g
0e
1b
1D
1#
#930000
14
1A
1T
0g
1a
1E
1$
#960000
04
03
02
01
0A
0@
0?
0>
0S
0V
0U
0T
1g
1e
1d
1f
0a
0b
0c
0C
0D
0E
0$
0#
0"
#990000
14
1A
1T
0g
1W
1P
1/
