SOMA4/simulation/qsim/SOMA4.msim.vcd
$comment
	File created using the following command:
		vcd file SOMA4.msim.vcd -direction
$end
$date
	Wed Oct 24 00:09:09 2018
$end
$version
	ModelSim Version 10.5b
$end
$timescale
	1ps
$end

$scope module soma4_vhd_vec_tst $end
$var wire 1 ! A [15] $end
$var wire 1 " A [14] $end
$var wire 1 # A [13] $end
$var wire 1 $ A [12] $end
$var wire 1 % A [11] $end
$var wire 1 & A [10] $end
$var wire 1 ' A [9] $end
$var wire 1 ( A [8] $end
$var wire 1 ) A [7] $end
$var wire 1 * A [6] $end
$var wire 1 + A [5] $end
$var wire 1 , A [4] $end
$var wire 1 - A [3] $end
$var wire 1 . A [2] $end
$var wire 1 / A [1] $end
$var wire 1 0 A [0] $end
$var wire 1 1 cin $end
$var wire 1 2 clk $end
$var wire 1 3 cout $end
$var wire 1 4 sum [15] $end
$var wire 1 5 sum [14] $end
$var wire 1 6 sum [13] $end
$var wire 1 7 sum [12] $end
$var wire 1 8 sum [11] $end
$var wire 1 9 sum [10] $end
$var wire 1 : sum [9] $end
$var wire 1 ; sum [8] $end
$var wire 1 < sum [7] $end
$var wire 1 = sum [6] $end
$var wire 1 > sum [5] $end
$var wire 1 ? sum [4] $end
$var wire 1 @ sum [3] $end
$var wire 1 A sum [2] $end
$var wire 1 B sum [1] $end
$var wire 1 C sum [0] $end

$scope module i1 $end
$var wire 1 D gnd $end
$var wire 1 E vcc $end
$var wire 1 F unknown $end
$var wire 1 G devoe $end
$var wire 1 H devclrn $end
$var wire 1 I devpor $end
$var wire 1 J ww_devoe $end
$var wire 1 K ww_devclrn $end
$var wire 1 L ww_devpor $end
$var wire 1 M ww_clk $end
$var wire 1 N ww_A [15] $end
$var wire 1 O ww_A [14] $end
$var wire 1 P ww_A [13] $end
$var wire 1 Q ww_A [12] $end
$var wire 1 R ww_A [11] $end
$var wire 1 S ww_A [10] $end
$var wire 1 T ww_A [9] $end
$var wire 1 U ww_A [8] $end
$var wire 1 V ww_A [7] $end
$var wire 1 W ww_A [6] $end
$var wire 1 X ww_A [5] $end
$var wire 1 Y ww_A [4] $end
$var wire 1 Z ww_A [3] $end
$var wire 1 [ ww_A [2] $end
$var wire 1 \ ww_A [1] $end
$var wire 1 ] ww_A [0] $end
$var wire 1 ^ ww_cin $end
$var wire 1 _ ww_cout $end
$var wire 1 ` ww_sum [15] $end
$var wire 1 a ww_sum [14] $end
$var wire 1 b ww_sum [13] $end
$var wire 1 c ww_sum [12] $end
$var wire 1 d ww_sum [11] $end
$var wire 1 e ww_sum [10] $end
$var wire 1 f ww_sum [9] $end
$var wire 1 g ww_sum [8] $end
$var wire 1 h ww_sum [7] $end
$var wire 1 i ww_sum [6] $end
$var wire 1 j ww_sum [5] $end
$var wire 1 k ww_sum [4] $end
$var wire 1 l ww_sum [3] $end
$var wire 1 m ww_sum [2] $end
$var wire 1 n ww_sum [1] $end
$var wire 1 o ww_sum [0] $end
$var wire 1 p \cout~output_o\ $end
$var wire 1 q \sum[0]~output_o\ $end
$var wire 1 r \sum[1]~output_o\ $end
$var wire 1 s \sum[2]~output_o\ $end
$var wire 1 t \sum[3]~output_o\ $end
$var wire 1 u \sum[4]~output_o\ $end
$var wire 1 v \sum[5]~output_o\ $end
$var wire 1 w \sum[6]~output_o\ $end
$var wire 1 x \sum[7]~output_o\ $end
$var wire 1 y \sum[8]~output_o\ $end
$var wire 1 z \sum[9]~output_o\ $end
$var wire 1 { \sum[10]~output_o\ $end
$var wire 1 | \sum[11]~output_o\ $end
$var wire 1 } \sum[12]~output_o\ $end
$var wire 1 ~ \sum[13]~output_o\ $end
$var wire 1 !! \sum[14]~output_o\ $end
$var wire 1 "! \sum[15]~output_o\ $end
$var wire 1 #! \clk~input_o\ $end
$var wire 1 $! \A[0]~input_o\ $end
$var wire 1 %! \cin~input_o\ $end
$var wire 1 &! \A[1]~input_o\ $end
$var wire 1 '! \A[2]~input_o\ $end
$var wire 1 (! \A[3]~input_o\ $end
$var wire 1 )! \A[4]~input_o\ $end
$var wire 1 *! \c~0_combout\ $end
$var wire 1 +! \A[5]~input_o\ $end
$var wire 1 ,! \A[6]~input_o\ $end
$var wire 1 -! \A[7]~input_o\ $end
$var wire 1 .! \A[8]~input_o\ $end
$var wire 1 /! \A[9]~input_o\ $end
$var wire 1 0! \c~1_combout\ $end
$var wire 1 1! \A[10]~input_o\ $end
$var wire 1 2! \A[11]~input_o\ $end
$var wire 1 3! \A[12]~input_o\ $end
$var wire 1 4! \c~2_combout\ $end
$var wire 1 5! \A[13]~input_o\ $end
$var wire 1 6! \A[14]~input_o\ $end
$var wire 1 7! \A[15]~input_o\ $end
$var wire 1 8! \c~3_combout\ $end
$var wire 1 9! \c~q\ $end
$var wire 1 :! \soma~0_combout\ $end
$var wire 1 ;! \soma~1_combout\ $end
$var wire 1 <! \soma~2_combout\ $end
$var wire 1 =! \soma~3_combout\ $end
$var wire 1 >! \soma~4_combout\ $end
$var wire 1 ?! \soma~5_combout\ $end
$var wire 1 @! \soma~6_combout\ $end
$var wire 1 A! \soma~7_combout\ $end
$var wire 1 B! \soma~8_combout\ $end
$var wire 1 C! \soma~9_combout\ $end
$var wire 1 D! \soma~10_combout\ $end
$var wire 1 E! \soma~11_combout\ $end
$var wire 1 F! \soma~12_combout\ $end
$var wire 1 G! \soma~13_combout\ $end
$var wire 1 H! \soma~14_combout\ $end
$var wire 1 I! \soma~15_combout\ $end
$var wire 1 J! soma [15] $end
$var wire 1 K! soma [14] $end
$var wire 1 L! soma [13] $end
$var wire 1 M! soma [12] $end
$var wire 1 N! soma [11] $end
$var wire 1 O! soma [10] $end
$var wire 1 P! soma [9] $end
$var wire 1 Q! soma [8] $end
$var wire 1 R! soma [7] $end
$var wire 1 S! soma [6] $end
$var wire 1 T! soma [5] $end
$var wire 1 U! soma [4] $end
$var wire 1 V! soma [3] $end
$var wire 1 W! soma [2] $end
$var wire 1 X! soma [1] $end
$var wire 1 Y! soma [0] $end
$var wire 1 Z! \ALT_INV_c~0_combout\ $end
$var wire 1 [! \ALT_INV_c~1_combout\ $end
$var wire 1 \! \ALT_INV_c~2_combout\ $end
$var wire 1 ]! \ALT_INV_A[15]~input_o\ $end
$var wire 1 ^! \ALT_INV_A[14]~input_o\ $end
$var wire 1 _! \ALT_INV_A[13]~input_o\ $end
$var wire 1 `! \ALT_INV_A[12]~input_o\ $end
$var wire 1 a! \ALT_INV_A[11]~input_o\ $end
$var wire 1 b! \ALT_INV_A[10]~input_o\ $end
$var wire 1 c! \ALT_INV_A[9]~input_o\ $end
$var wire 1 d! \ALT_INV_A[8]~input_o\ $end
$var wire 1 e! \ALT_INV_A[7]~input_o\ $end
$var wire 1 f! \ALT_INV_A[6]~input_o\ $end
$var wire 1 g! \ALT_INV_A[5]~input_o\ $end
$var wire 1 h! \ALT_INV_A[4]~input_o\ $end
$var wire 1 i! \ALT_INV_A[3]~input_o\ $end
$var wire 1 j! \ALT_INV_A[2]~input_o\ $end
$var wire 1 k! \ALT_INV_A[1]~input_o\ $end
$var wire 1 l! \ALT_INV_cin~input_o\ $end
$var wire 1 m! \ALT_INV_A[0]~input_o\ $end
$upscope $end
$upscope $end
$enddefinitions $end
#0
$dumpvars
01
02
03
0D
1E
xF
1G
1H
1I
1J
1K
1L
0M
0^
0_
0p
0q
0r
0s
0t
0u
0v
0w
0x
0y
0z
0{
0|
0}
0~
0!!
0"!
0#!
1$!
0%!
0&!
0'!
0(!
0)!
0*!
0+!
0,!
0-!
0.!
0/!
00!
01!
02!
03!
04!
05!
06!
07!
08!
09!
1:!
0;!
1<!
0=!
0>!
0?!
0@!
0A!
0B!
0C!
0D!
0E!
0F!
0G!
0H!
0I!
1Z!
1[!
1\!
1]!
1^!
1_!
1`!
1a!
1b!
1c!
1d!
1e!
1f!
1g!
1h!
1i!
1j!
1k!
1l!
0m!
0!
0"
0#
0$
0%
0&
0'
0(
0)
0*
0+
0,
0-
0.
0/
10
0N
0O
0P
0Q
0R
0S
0T
0U
0V
0W
0X
0Y
0Z
0[
0\
1]
0`
0a
0b
0c
0d
0e
0f
0g
0h
0i
0j
0k
0l
0m
0n
0o
0J!
0K!
0L!
0M!
0N!
0O!
0P!
0Q!
0R!
0S!
0T!
0U!
0V!
0W!
0X!
0Y!
04
05
06
07
08
09
0:
0;
0<
0=
0>
0?
0@
0A
0B
0C
$end
#50000
12
1M
1#!
1Y!
1W!
1s
1q
1m
1o
1C
1A
#100000
02
0M
0#!
#150000
12
1M
1#!
#200000
02
0M
0#!
#250000
12
1M
1#!
#300000
02
0M
0#!
#350000
12
1M
1#!
#400000
02
0M
0#!
#450000
12
1M
1#!
#500000
02
0M
0#!
#550000
12
1M
1#!
#600000
02
0M
0#!
#650000
12
1M
1#!
#700000
02
0M
0#!
#750000
12
1M
1#!
#800000
02
0M
0#!
#850000
12
1M
1#!
#900000
02
0M
0#!
#950000
12
1M
1#!
