XOR_port/simulation/qsim/AND_port.msim.vcd
$comment
	File created using the following command:
		vcd file AND_port.msim.vcd -direction
$end
$date
	Wed Oct 17 20:47:48 2018
$end
$version
	ModelSim Version 10.5b
$end
$timescale
	1ps
$end

$scope module xor_port_vhd_vec_tst $end
$var wire 1 ! A $end
$var wire 1 " B $end
$var wire 1 # pout $end

$scope module i1 $end
$var wire 1 $ gnd $end
$var wire 1 % vcc $end
$var wire 1 & unknown $end
$var wire 1 ' devoe $end
$var wire 1 ( devclrn $end
$var wire 1 ) devpor $end
$var wire 1 * ww_devoe $end
$var wire 1 + ww_devclrn $end
$var wire 1 , ww_devpor $end
$var wire 1 - ww_A $end
$var wire 1 . ww_B $end
$var wire 1 / ww_pout $end
$var wire 1 0 \pout~output_o\ $end
$var wire 1 1 \A~input_o\ $end
$var wire 1 2 \B~input_o\ $end
$var wire 1 3 \G5|F~0_combout\ $end
$var wire 1 4 \ALT_INV_B~input_o\ $end
$var wire 1 5 \ALT_INV_A~input_o\ $end
$upscope $end
$upscope $end
$enddefinitions $end
#0
$dumpvars
0!
0"
0#
0$
1%
x&
1'
1(
1)
1*
1+
1,
0-
0.
0/
00
01
02
03
14
15
$end
#10000
1!
1-
11
05
13
10
1/
1#
#20000
0!
0-
01
15
03
00
0/
0#
#30000
1!
1"
1-
1.
12
11
05
04
#40000
0!
0-
01
15
13
10
1/
1#
#50000
1!
1-
11
05
03
00
0/
0#
#60000
0!
0"
0-
0.
02
01
15
14
#70000
1!
1-
11
05
13
10
1/
1#
#80000
0!
0-
01
15
03
00
0/
0#
#90000
1!
1"
1-
1.
12
11
05
04
#100000
0!
0-
01
15
13
10
1/
1#
#110000
1!
1-
11
05
03
00
0/
0#
#120000
0!
0"
0-
0.
02
01
15
14
#130000
1!
1-
11
05
13
10
1/
1#
#140000
0!
0-
01
15
03
00
0/
0#
#150000
1!
1"
1-
1.
12
11
05
04
#160000
0!
0-
01
15
13
10
1/
1#
#170000
1!
1-
11
05
03
00
0/
0#
#180000
0!
0"
0-
0.
02
01
15
14
#190000
1!
1-
11
05
13
10
1/
1#
#200000
0!
0-
01
15
03
00
0/
0#
#210000
1!
1"
1-
1.
12
11
05
04
#220000
0!
0-
01
15
13
10
1/
1#
#230000
1!
1-
11
05
03
00
0/
0#
#240000
0!
0"
0-
0.
02
01
15
14
#250000
1!
1-
11
05
13
10
1/
1#
#260000
0!
0-
01
15
03
00
0/
0#
#270000
1!
1"
1-
1.
12
11
05
04
#280000
0!
0-
01
15
13
10
1/
1#
#290000
1!
1-
11
05
03
00
0/
0#
#300000
0!
0"
0-
0.
02
01
15
14
#310000
1!
1-
11
05
13
10
1/
1#
#320000
0!
0-
01
15
03
00
0/
0#
#330000
1!
1"
1-
1.
12
11
05
04
#340000
0!
0-
01
15
13
10
1/
1#
#350000
1!
1-
11
05
03
00
0/
0#
#360000
0!
0"
0-
0.
02
01
15
14
#370000
1!
1-
11
05
13
10
1/
1#
#380000
0!
0-
01
15
03
00
0/
0#
#390000
1!
1"
1-
1.
12
11
05
04
#400000
0!
0-
01
15
13
10
1/
1#
#410000
1!
1-
11
05
03
00
0/
0#
#420000
0!
0"
0-
0.
02
01
15
14
#430000
1!
1-
11
05
13
10
1/
1#
#440000
0!
0-
01
15
03
00
0/
0#
#450000
1!
1"
1-
1.
12
11
05
04
#460000
0!
0-
01
15
13
10
1/
1#
#470000
1!
1-
11
05
03
00
0/
0#
#480000
0!
0"
0-
0.
02
01
15
14
#490000
1!
1-
11
05
13
10
1/
1#
#500000
0!
0-
01
15
03
00
0/
0#
#510000
1!
1"
1-
1.
12
11
05
04
#520000
0!
0-
01
15
13
10
1/
1#
#530000
1!
1-
11
05
03
00
0/
0#
#540000
0!
0"
0-
0.
02
01
15
14
#550000
1!
1-
11
05
13
10
1/
1#
#560000
0!
0-
01
15
03
00
0/
0#
#570000
1!
1"
1-
1.
12
11
05
04
#580000
0!
0-
01
15
13
10
1/
1#
#590000
1!
1-
11
05
03
00
0/
0#
#600000
0!
0"
0-
0.
02
01
15
14
#610000
1!
1-
11
05
13
10
1/
1#
#620000
0!
0-
01
15
03
00
0/
0#
#630000
1!
1"
1-
1.
12
11
05
04
#640000
0!
0-
01
15
13
10
1/
1#
#650000
1!
1-
11
05
03
00
0/
0#
#660000
0!
0"
0-
0.
02
01
15
14
#670000
1!
1-
11
05
13
10
1/
1#
#680000
0!
0-
01
15
03
00
0/
0#
#690000
1!
1"
1-
1.
12
11
05
04
#700000
0!
0-
01
15
13
10
1/
1#
#710000
1!
1-
11
05
03
00
0/
0#
#720000
0!
0"
0-
0.
02
01
15
14
#730000
1!
1-
11
05
13
10
1/
1#
#740000
0!
0-
01
15
03
00
0/
0#
#750000
1!
1"
1-
1.
12
11
05
04
#760000
0!
0-
01
15
13
10
1/
1#
#770000
1!
1-
11
05
03
00
0/
0#
#780000
0!
0"
0-
0.
02
01
15
14
#790000
1!
1-
11
05
13
10
1/
1#
#800000
0!
0-
01
15
03
00
0/
0#
#810000
1!
1"
1-
1.
12
11
05
04
#820000
0!
0-
01
15
13
10
1/
1#
#830000
1!
1-
11
05
03
00
0/
0#
#840000
0!
0"
0-
0.
02
01
15
14
#850000
1!
1-
11
05
13
10
1/
1#
#860000
0!
0-
01
15
03
00
0/
0#
#870000
1!
1"
1-
1.
12
11
05
04
#880000
0!
0-
01
15
13
10
1/
1#
#890000
1!
1-
11
05
03
00
0/
0#
#900000
0!
0"
0-
0.
02
01
15
14
#910000
1!
1-
11
05
13
10
1/
1#
#920000
0!
0-
01
15
03
00
0/
0#
#930000
1!
1"
1-
1.
12
11
05
04
#940000
0!
0-
01
15
13
10
1/
1#
#950000
1!
1-
11
05
03
00
0/
0#
#960000
0!
0"
0-
0.
02
01
15
14
#970000
1!
1-
11
05
13
10
1/
1#
#980000
0!
0-
01
15
03
00
0/
0#
#990000
1!
1"
1-
1.
12
11
05
04
