CONTADOR_SINCRONO/simulation/qsim/Laboratorio_2018.msim.vcd
$comment
	File created using the following command:
		vcd file Laboratorio_2018.msim.vcd -direction
$end
$date
	Fri Oct 26 22:29:27 2018
$end
$version
	ModelSim Version 10.5b
$end
$timescale
	1ps
$end

$scope module contador_sicrono_vhd_vec_tst $end
$var wire 1 ! clk $end
$var wire 1 " s [4] $end
$var wire 1 # s [3] $end
$var wire 1 $ s [2] $end
$var wire 1 % s [1] $end
$var wire 1 & s [0] $end

$scope module i1 $end
$var wire 1 ' gnd $end
$var wire 1 ( vcc $end
$var wire 1 ) unknown $end
$var wire 1 * devoe $end
$var wire 1 + devclrn $end
$var wire 1 , devpor $end
$var wire 1 - ww_devoe $end
$var wire 1 . ww_devclrn $end
$var wire 1 / ww_devpor $end
$var wire 1 0 ww_clk $end
$var wire 1 1 ww_s [4] $end
$var wire 1 2 ww_s [3] $end
$var wire 1 3 ww_s [2] $end
$var wire 1 4 ww_s [1] $end
$var wire 1 5 ww_s [0] $end
$var wire 1 6 \s[4]~input_o\ $end
$var wire 1 7 \s[0]~input_o\ $end
$var wire 1 8 \s[1]~input_o\ $end
$var wire 1 9 \s[2]~input_o\ $end
$var wire 1 : \s[3]~input_o\ $end
$var wire 1 ; \s[4]~output_o\ $end
$var wire 1 < \s[0]~output_o\ $end
$var wire 1 = \s[1]~output_o\ $end
$var wire 1 > \s[2]~output_o\ $end
$var wire 1 ? \s[3]~output_o\ $end
$var wire 1 @ \clk~input_o\ $end
$var wire 1 A \G00|G01|G01|q0~1_combout\ $end
$var wire 1 B \G00|G01|G02|q0~1_combout\ $end
$var wire 1 C \G01|G01|G01|q0~1_combout\ $end
$var wire 1 D \G01|G01|G02|q0~1_combout\ $end
$var wire 1 E \G02|G01|G01|q0~1_combout\ $end
$var wire 1 F \G02|G01|G02|q0~1_combout\ $end
$var wire 1 G \G03|G01|G01|q0~1_combout\ $end
$var wire 1 H \G03|G01|G02|q0~1_combout\ $end
$var wire 1 I \G00|G01|G01|ALT_INV_q0~1_combout\ $end
$var wire 1 J \G03|G01|G02|ALT_INV_q0~1_combout\ $end
$var wire 1 K \G02|G01|G02|ALT_INV_q0~1_combout\ $end
$var wire 1 L \G01|G01|G02|ALT_INV_q0~1_combout\ $end
$var wire 1 M \G00|G01|G02|ALT_INV_q0~1_combout\ $end
$var wire 1 N \G01|G01|G01|ALT_INV_q0~1_combout\ $end
$var wire 1 O \ALT_INV_clk~input_o\ $end
$var wire 1 P \G03|G01|G01|ALT_INV_q0~1_combout\ $end
$var wire 1 Q \G02|G01|G01|ALT_INV_q0~1_combout\ $end
$upscope $end
$upscope $end
$enddefinitions $end
#0
$dumpvars
1!
0'
1(
x)
1*
1+
1,
1-
1.
1/
10
x6
x7
x8
x9
x:
z;
x<
x=
x>
x?
1@
xA
xB
xC
xD
xE
xF
xG
xH
xI
xJ
xK
xL
xM
xN
0O
xP
xQ
x"
x#
x$
x%
x&
x1
x2
x3
x4
x5
$end
#50000
0!
00
0@
1O
#100000
1!
10
1@
0O
#150000
0!
00
0@
1O
#200000
1!
10
1@
0O
#250000
0!
00
0@
1O
#300000
1!
10
1@
0O
#350000
0!
00
0@
1O
#400000
1!
10
1@
0O
#450000
0!
00
0@
1O
#500000
1!
10
1@
0O
#550000
0!
00
0@
1O
#600000
1!
10
1@
0O
#650000
0!
00
0@
1O
#700000
1!
10
1@
0O
#750000
0!
00
0@
1O
#800000
1!
10
1@
0O
#850000
0!
00
0@
1O
#900000
1!
10
1@
0O
#950000
0!
00
0@
1O
