FlipFlopD_FlipFlopJK/simulation/qsim/Laboratorio_2018.msim.vcd
$comment
	File created using the following command:
		vcd file Laboratorio_2018.msim.vcd -direction
$end
$date
	Fri Oct 26 16:51:41 2018
$end
$version
	ModelSim Version 10.5b
$end
$timescale
	1ps
$end

$scope module flipflopd_vhd_vec_tst $end
$var wire 1 ! clk $end
$var wire 1 " d $end
$var wire 1 # q0 $end
$var wire 1 $ q1 $end

$scope module i1 $end
$var wire 1 % gnd $end
$var wire 1 & vcc $end
$var wire 1 ' unknown $end
$var wire 1 ( devoe $end
$var wire 1 ) devclrn $end
$var wire 1 * devpor $end
$var wire 1 + ww_devoe $end
$var wire 1 , ww_devclrn $end
$var wire 1 - ww_devpor $end
$var wire 1 . ww_d $end
$var wire 1 / ww_clk $end
$var wire 1 0 ww_q0 $end
$var wire 1 1 ww_q1 $end
$var wire 1 2 \q0~input_o\ $end
$var wire 1 3 \q1~input_o\ $end
$var wire 1 4 \q0~output_o\ $end
$var wire 1 5 \q1~output_o\ $end
$var wire 1 6 \clk~input_o\ $end
$var wire 1 7 \d~input_o\ $end
$var wire 1 8 \G01|q0~1_combout\ $end
$var wire 1 9 \G02|q0~1_combout\ $end
$var wire 1 : \G02|q1~0_combout\ $end
$var wire 1 ; \ALT_INV_d~input_o\ $end
$var wire 1 < \ALT_INV_clk~input_o\ $end
$var wire 1 = \G01|ALT_INV_q0~1_combout\ $end
$var wire 1 > \G02|ALT_INV_q0~1_combout\ $end
$upscope $end
$upscope $end
$enddefinitions $end
#0
$dumpvars
0!
0"
x#
x$
0%
1&
x'
1(
1)
1*
1+
1,
1-
0.
0/
x0
x1
x2
x3
x4
x5
06
07
x8
x9
x:
1;
1<
x=
x>
$end
#46000
1!
1/
16
0<
18
0=
#92000
0!
0/
06
1<
09
1:
1>
15
04
11
00
1$
0#
02
13
#100000
1"
1.
17
0;
#138000
1!
1/
16
0<
08
1=
#184000
0!
0/
06
1<
19
0>
0:
14
10
1#
05
01
12
0$
03
#200000
0"
0.
07
1;
#230000
1!
1/
16
0<
18
0=
#276000
0!
0/
06
1<
09
1:
1>
15
04
11
00
1$
0#
02
13
#300000
1"
1.
17
0;
#322000
1!
1/
16
0<
08
1=
#368000
0!
0/
06
1<
19
0>
0:
14
10
1#
05
01
12
0$
03
#400000
0"
0.
07
1;
#414000
1!
1/
16
0<
18
0=
#460000
0!
0/
06
1<
09
1:
1>
15
04
11
00
1$
0#
02
13
#500000
1"
1.
17
0;
#506000
1!
1/
16
0<
08
1=
#552000
0!
0/
06
1<
19
0>
0:
14
10
1#
05
01
12
0$
03
#598000
1!
1/
16
0<
#600000
0"
0.
07
1;
18
0=
#644000
0!
0/
06
1<
09
1:
1>
15
04
11
00
1$
0#
02
13
#690000
1!
1/
16
0<
#700000
1"
1.
17
0;
08
1=
#736000
0!
0/
06
1<
19
0>
0:
14
10
1#
05
01
12
0$
03
#782000
1!
1/
16
0<
#800000
0"
0.
07
1;
18
0=
#828000
0!
0/
06
1<
09
1:
1>
15
04
11
00
1$
0#
02
13
#874000
1!
1/
16
0<
#900000
1"
1.
17
0;
08
1=
#920000
0!
0/
06
1<
19
0>
0:
14
10
1#
05
01
12
0$
03
#966000
1!
1/
16
0<
